<?xml version="1.0" encoding="UTF-8" standalone="no"?>
<svg
   width="256"
   height="256"
   viewBox="0 0 67.73333 67.733335"
   version="1.1"
   id="svg8"
   inkscape:version="1.1.2 (0a00cf5339, 2022-02-04)"
   sodipodi:docname="playing_cards_diamond_7.svg"
   xmlns:inkscape="http://www.inkscape.org/namespaces/inkscape"
   xmlns:sodipodi="http://sodipodi.sourceforge.net/DTD/sodipodi-0.dtd"
   xmlns="http://www.w3.org/2000/svg"
   xmlns:svg="http://www.w3.org/2000/svg"
   xmlns:rdf="http://www.w3.org/1999/02/22-rdf-syntax-ns#"
   xmlns:cc="http://creativecommons.org/ns#"
   xmlns:dc="http://purl.org/dc/elements/1.1/">
  <defs
     id="defs2" />
  <sodipodi:namedview
     id="base"
     pagecolor="#ffffff"
     bordercolor="#666666"
     borderopacity="1.0"
     inkscape:pageopacity="0"
     inkscape:pageshadow="2"
     inkscape:zoom="22.4"
     inkscape:cx="110.11161"
     inkscape:cy="128.08036"
     inkscape:document-units="px"
     inkscape:current-layer="layer1"
     inkscape:document-rotation="0"
     showgrid="true"
     units="px"
     inkscape:window-width="2560"
     inkscape:window-height="1349"
     inkscape:window-x="1200"
     inkscape:window-y="240"
     inkscape:window-maximized="1"
     inkscape:snap-grids="false"
     inkscape:pagecheckerboard="0">
    <inkscape:grid
       type="xygrid"
       id="grid833"
       units="px"
       empspacing="4"
       spacingy="0.26458333"
       spacingx="0.26458333" />
  </sodipodi:namedview>
  <metadata
     id="metadata5">
    <rdf:RDF>
      <cc:Work
         rdf:about="">
        <dc:format>image/svg+xml</dc:format>
        <dc:type
           rdf:resource="http://purl.org/dc/dcmitype/StillImage" />
      </cc:Work>
    </rdf:RDF>
  </metadata>
  <g
     inkscape:label="Desk"
     inkscape:groupmode="layer"
     id="layer1"
     style="opacity:1">
    <rect
       style="fill:#ffffff;stroke:#000000;stroke-width:0.264583;stroke-linecap:round;stroke-linejoin:bevel;stop-color:#000000"
       id="rect929"
       width="6.3499999"
       height="8.9958324"
       x="29.633333"
       y="27.252081"
       ry="0.52916658"
       rx="0.52916735" />
    <text
       xml:space="preserve"
       style="font-size:1.41111px;line-height:1.25;font-family:Archivo;-inkscape-font-specification:'Archivo, Normal';font-variant-ligatures:none;fill:#ff0000;stroke-width:0.264582"
       x="30.312918"
       y="28.493317"
       id="text2700"><tspan
         sodipodi:role="line"
         id="tspan2698"
         style="font-size:1.41111px;fill:#ff0000;stroke-width:0.264582"
         x="30.312918"
         y="28.493317">7</tspan></text>
    <text
       xml:space="preserve"
       style="font-size:1.41111px;line-height:1.25;font-family:Archivo;-inkscape-font-specification:'Archivo, Normal';font-variant-ligatures:none;fill:#ff0000;stroke-width:0.264582"
       x="34.534779"
       y="-35.018661"
       id="text2700-0"
       transform="scale(1,-1)"><tspan
         sodipodi:role="line"
         id="tspan2698-8"
         style="font-size:1.41111px;fill:#ff0000;stroke-width:0.264582"
         x="34.534779"
         y="-35.018661">7</tspan></text>
    <path
       style="fill:#ff0000;stroke:#ff0000;stroke-width:0.0811789;stroke-linecap:round;stroke-linejoin:bevel;stop-color:#000000"
       d="M 31.75,33.225714 32.237074,33.875146 31.75,34.524578 31.262926,33.875146 Z"
       id="path2349"
       sodipodi:nodetypes="ccccc" />
    <path
       style="fill:#ff0000;stroke:#ff0000;stroke-width:0.0811789;stroke-linecap:round;stroke-linejoin:bevel;stop-color:#000000"
       d="M 31.75,31.103143 32.237074,31.752574 31.75,32.402006 31.262926,31.752574 Z"
       id="path2349-4"
       sodipodi:nodetypes="ccccc" />
    <path
       style="fill:#ff0000;stroke:#ff0000;stroke-width:0.0811789;stroke-linecap:round;stroke-linejoin:bevel;stop-color:#000000"
       d="M 31.75,28.983901 32.237074,29.633333 31.75,30.282765 31.262926,29.633333 Z"
       id="path2349-0"
       sodipodi:nodetypes="ccccc" />
    <path
       style="fill:#ff0000;stroke:#ff0000;stroke-width:0.0811789;stroke-linecap:round;stroke-linejoin:bevel;stop-color:#000000"
       d="m 33.824574,33.225714 0.487074,0.649432 -0.487074,0.649432 -0.487074,-0.649432 z"
       id="path2349-06"
       sodipodi:nodetypes="ccccc" />
    <path
       style="fill:#ff0000;stroke:#ff0000;stroke-width:0.0811789;stroke-linecap:round;stroke-linejoin:bevel;stop-color:#000000"
       d="m 33.824574,31.103143 0.487074,0.649431 -0.487074,0.649432 -0.487074,-0.649432 z"
       id="path2349-4-2"
       sodipodi:nodetypes="ccccc" />
    <path
       style="fill:#ff0000;stroke:#ff0000;stroke-width:0.0811789;stroke-linecap:round;stroke-linejoin:bevel;stop-color:#000000"
       d="m 33.824574,28.9839 0.487074,0.649433 -0.487074,0.649432 -0.487074,-0.649432 z"
       id="path2349-0-9"
       sodipodi:nodetypes="ccccc" />
    <path
       style="fill:#ff0000;stroke:#ff0000;stroke-width:0.0661457;stroke-linecap:round;stroke-linejoin:bevel;stop-color:#000000"
       d="m 30.691666,28.575 0.396875,0.529167 -0.396875,0.529166 -0.396875,-0.529166 z"
       id="path2349-5"
       sodipodi:nodetypes="ccccc" />
    <path
       style="fill:#ff0000;stroke:#ff0000;stroke-width:0.0661457;stroke-linecap:round;stroke-linejoin:bevel;stop-color:#000000"
       d="M 34.925,33.866667 35.321875,34.395834 34.925,34.925 34.528125,34.395834 Z"
       id="path2349-5-6"
       sodipodi:nodetypes="ccccc" />
  </g>
  <g
     inkscape:groupmode="layer"
     id="layer2"
     inkscape:label="Display" />
</svg>
