<?xml version="1.0" encoding="UTF-8" standalone="no"?>
<svg
   width="256"
   height="256"
   viewBox="0 0 67.73333 67.733335"
   version="1.1"
   id="svg8"
   inkscape:version="1.1.2 (0a00cf5339, 2022-02-04)"
   sodipodi:docname="snacks_large.svg"
   xmlns:inkscape="http://www.inkscape.org/namespaces/inkscape"
   xmlns:sodipodi="http://sodipodi.sourceforge.net/DTD/sodipodi-0.dtd"
   xmlns:xlink="http://www.w3.org/1999/xlink"
   xmlns="http://www.w3.org/2000/svg"
   xmlns:svg="http://www.w3.org/2000/svg"
   xmlns:rdf="http://www.w3.org/1999/02/22-rdf-syntax-ns#"
   xmlns:cc="http://creativecommons.org/ns#"
   xmlns:dc="http://purl.org/dc/elements/1.1/">
  <defs
     id="defs2">
    <linearGradient
       inkscape:collect="always"
       id="linearGradient4841">
      <stop
         style="stop-color:#00ff00;stop-opacity:1;"
         offset="0"
         id="stop4837" />
      <stop
         style="stop-color:#008000;stop-opacity:1"
         offset="1"
         id="stop4839" />
    </linearGradient>
    <linearGradient
       inkscape:collect="always"
       id="linearGradient4141">
      <stop
         style="stop-color:#773b30;stop-opacity:1;"
         offset="0"
         id="stop4137" />
      <stop
         style="stop-color:#ff7f2a;stop-opacity:1"
         offset="1"
         id="stop4139" />
    </linearGradient>
    <radialGradient
       inkscape:collect="always"
       xlink:href="#linearGradient4141"
       id="radialGradient4143"
       cx="33.86668"
       cy="33.866665"
       fx="33.86668"
       fy="33.866665"
       r="8.5989577"
       gradientUnits="userSpaceOnUse"
       gradientTransform="matrix(1.4769232,8.4295121e-8,-3.6561578e-6,1.4769229,-16.151696,-16.15179)" />
    <radialGradient
       inkscape:collect="always"
       xlink:href="#linearGradient4841"
       id="radialGradient4843"
       cx="15.874986"
       cy="35.983334"
       fx="15.874986"
       fy="35.983334"
       r="2.2489581"
       gradientUnits="userSpaceOnUse"
       gradientTransform="matrix(0.94117675,1.3621986e-6,-3.5037102e-6,0.87205106,22.957818,2.8866855)" />
    <radialGradient
       inkscape:collect="always"
       xlink:href="#linearGradient4841"
       id="radialGradient4843-6"
       cx="15.874986"
       cy="35.983334"
       fx="15.874986"
       fy="35.983334"
       r="2.2489581"
       gradientUnits="userSpaceOnUse"
       gradientTransform="matrix(0.94117675,1.3621986e-6,-3.5037102e-6,0.87205106,21.288898,-1.1868531)" />
    <radialGradient
       inkscape:collect="always"
       xlink:href="#linearGradient4841"
       id="radialGradient4843-62"
       cx="15.874986"
       cy="35.983334"
       fx="15.874986"
       fy="35.983334"
       r="2.2489581"
       gradientUnits="userSpaceOnUse"
       gradientTransform="matrix(0.86485882,1.2304569e-6,-3.2196021e-6,0.78771275,20.054031,5.89258)" />
    <radialGradient
       inkscape:collect="always"
       xlink:href="#linearGradient4841"
       id="radialGradient4843-2"
       cx="15.874986"
       cy="35.983334"
       fx="15.874986"
       fy="35.983334"
       r="2.2489581"
       gradientUnits="userSpaceOnUse"
       gradientTransform="matrix(0.40740202,0.84843224,-0.78611924,0.37747794,52.30041,3.6855509)" />
    <radialGradient
       inkscape:collect="always"
       xlink:href="#linearGradient4841"
       id="radialGradient4843-29"
       cx="15.874986"
       cy="35.983334"
       fx="15.874986"
       fy="35.983334"
       r="2.2489581"
       gradientUnits="userSpaceOnUse"
       gradientTransform="matrix(0.94117675,1.3621986e-6,-3.5037102e-6,0.87205106,13.693328,3.0400233)" />
    <radialGradient
       inkscape:collect="always"
       xlink:href="#linearGradient4841"
       id="radialGradient4843-3"
       cx="15.874986"
       cy="35.983334"
       fx="15.874986"
       fy="35.983334"
       r="2.2489581"
       gradientUnits="userSpaceOnUse"
       gradientTransform="matrix(-0.80565961,0.0131061,0.04283354,-0.8350422,48.267475,68.9339)" />
    <radialGradient
       inkscape:collect="always"
       xlink:href="#linearGradient4841"
       id="radialGradient4843-34"
       cx="15.874986"
       cy="35.983334"
       fx="15.874986"
       fy="35.983334"
       r="2.2489581"
       gradientUnits="userSpaceOnUse"
       gradientTransform="matrix(0.78808301,1.1046473e-6,-2.9337895e-6,0.70717211,18.516198,12.292952)" />
    <radialGradient
       inkscape:collect="always"
       xlink:href="#linearGradient4841"
       id="radialGradient4843-29-1"
       cx="15.874986"
       cy="35.983334"
       fx="15.874986"
       fy="35.983334"
       r="2.2489581"
       gradientUnits="userSpaceOnUse"
       gradientTransform="matrix(0.54599938,-0.76661487,0.71030875,0.50589972,-1.4578393,33.404502)" />
    <radialGradient
       inkscape:collect="always"
       xlink:href="#linearGradient4841"
       id="radialGradient4843-29-3"
       cx="15.874986"
       cy="35.983334"
       fx="15.874986"
       fy="35.983334"
       r="2.2489581"
       gradientUnits="userSpaceOnUse"
       gradientTransform="matrix(0.94117675,1.3621986e-6,-3.5037102e-6,0.87205106,20.326315,5.2039722)" />
    <radialGradient
       inkscape:collect="always"
       xlink:href="#linearGradient4841"
       id="radialGradient4843-29-5"
       cx="15.874986"
       cy="35.983334"
       fx="15.874986"
       fy="35.983334"
       r="2.2489581"
       gradientUnits="userSpaceOnUse"
       gradientTransform="matrix(0.85133907,-0.40129225,0.3718169,0.78881255,4.4714303,12.260417)" />
    <radialGradient
       inkscape:collect="always"
       xlink:href="#linearGradient4841"
       id="radialGradient4843-29-0"
       cx="15.874986"
       cy="35.983334"
       fx="15.874986"
       fy="35.983334"
       r="2.2489581"
       gradientUnits="userSpaceOnUse"
       gradientTransform="matrix(0.8859642,0.39785277,-0.30217867,0.67290426,31.050532,-2.805558)" />
    <radialGradient
       inkscape:collect="always"
       xlink:href="#linearGradient4841"
       id="radialGradient4843-29-2"
       cx="15.874986"
       cy="35.983334"
       fx="15.874986"
       fy="35.983334"
       r="2.2489581"
       gradientUnits="userSpaceOnUse"
       gradientTransform="matrix(0.6143861,-0.71298204,0.66061488,0.56926358,4.7891229,22.713596)" />
    <radialGradient
       inkscape:collect="always"
       xlink:href="#linearGradient4841"
       id="radialGradient4843-29-6"
       cx="15.874986"
       cy="35.983334"
       fx="15.874986"
       fy="35.983334"
       r="2.2489581"
       gradientUnits="userSpaceOnUse"
       gradientTransform="matrix(-0.31219231,0.88789056,-0.82267778,-0.28926514,73.596195,31.860078)" />
    <radialGradient
       inkscape:collect="always"
       xlink:href="#linearGradient4841"
       id="radialGradient4843-29-3-2"
       cx="15.874986"
       cy="35.983334"
       fx="15.874986"
       fy="35.983334"
       r="2.2489581"
       gradientUnits="userSpaceOnUse"
       gradientTransform="matrix(0.94117675,1.3621986e-6,-3.5037102e-6,0.87205106,19.150128,0.3825292)" />
  </defs>
  <sodipodi:namedview
     id="base"
     pagecolor="#ffffff"
     bordercolor="#666666"
     borderopacity="1.0"
     inkscape:pageopacity="0"
     inkscape:pageshadow="2"
     inkscape:zoom="7.9195959"
     inkscape:cx="106.12915"
     inkscape:cy="118.81919"
     inkscape:document-units="px"
     inkscape:current-layer="layer2"
     inkscape:document-rotation="0"
     showgrid="true"
     units="px"
     inkscape:window-width="2560"
     inkscape:window-height="1349"
     inkscape:window-x="1200"
     inkscape:window-y="240"
     inkscape:window-maximized="1"
     inkscape:snap-grids="false"
     inkscape:pagecheckerboard="0">
    <inkscape:grid
       type="xygrid"
       id="grid833"
       units="px"
       empspacing="4"
       spacingy="1.0583333"
       spacingx="1.0583333" />
  </sodipodi:namedview>
  <metadata
     id="metadata5">
    <rdf:RDF>
      <cc:Work
         rdf:about="">
        <dc:format>image/svg+xml</dc:format>
        <dc:type
           rdf:resource="http://purl.org/dc/dcmitype/StillImage" />
      </cc:Work>
    </rdf:RDF>
  </metadata>
  <g
     inkscape:label="Object"
     inkscape:groupmode="layer"
     id="layer1"
     style="opacity:1"
     sodipodi:insensitive="true">
    <rect
       style="fill:url(#radialGradient4143);fill-opacity:1;stroke:#ff7f2a;stroke-width:0.264583;stroke-linecap:round;stroke-linejoin:round;stroke-opacity:0.999962;stop-color:#000000"
       id="rect3945"
       width="16.933332"
       height="16.933332"
       x="25.4"
       y="25.4"
       rx="8.9958334"
       ry="8.4666662" />
  </g>
  <g
     inkscape:groupmode="layer"
     id="layer2"
     inkscape:label="Apples"
     style="display:inline">
    <path
       id="path4761"
       style="fill:url(#radialGradient4843);stroke:#008000;stroke-width:0.264583;stroke-linecap:round;stroke-linejoin:round;stroke-opacity:0.999962;stop-color:#000000"
       d="m 40.015527,34.266014 c -0.209725,1.1834 -0.947664,2.116666 -2.116667,2.116666 -1.169003,0 -1.968855,-0.964125 -1.968856,-2.133128 0,-1.169003 0.914884,-2.615906 1.973218,-1.557571 1.058333,-1.058335 2.3163,0.422966 2.112305,1.574033 z"
       sodipodi:nodetypes="ssccs" />
    <path
       id="path4761-8"
       style="display:inline;fill:url(#radialGradient4843-6);stroke:#008000;stroke-width:0.264583;stroke-linecap:round;stroke-linejoin:round;stroke-opacity:0.999962;stop-color:#000000"
       d="m 38.346607,30.192475 c -0.209725,1.1834 -0.947664,2.116666 -2.116667,2.116666 -1.169003,0 -1.87436,-0.92796 -2.134408,-2.121316 0,-1.169003 1.080436,-2.627718 2.13877,-1.569383 1.058333,-1.058335 2.3163,0.422966 2.112305,1.574033 z"
       sodipodi:nodetypes="ssccs" />
    <path
       id="path4761-6"
       style="display:inline;fill:url(#radialGradient4843-2);stroke:#008000;stroke-width:0.264583;stroke-linecap:round;stroke-linejoin:round;stroke-opacity:0.999962;stop-color:#000000"
       d="m 31.396951,32.645403 c -1.157569,0.323195 -2.318298,0.06195 -2.824319,-0.991854 -0.506022,-1.053808 0.01687,-2.192178 1.070675,-2.6982 1.053808,-0.506022 2.754152,-0.307607 2.258224,1.104554 1.412161,0.495926 0.621361,2.271136 -0.50458,2.5855 z"
       sodipodi:nodetypes="ssccs" />
    <path
       id="path4761-81"
       style="display:inline;fill:url(#radialGradient4843-29);stroke:#008000;stroke-width:0.264583;stroke-linecap:round;stroke-linejoin:round;stroke-opacity:0.999962;stop-color:#000000"
       d="m 30.751037,34.419352 c 0.394219,1.135346 -0.947664,2.116666 -2.116667,2.116666 -1.169003,0 -1.968855,-0.964125 -1.968856,-2.133128 0,-1.169003 0.914884,-2.615906 1.973218,-1.557571 1.388645,-0.700161 1.712627,0.422966 2.112305,1.574033 z"
       sodipodi:nodetypes="ssccs" />
    <path
       id="path4761-0"
       style="display:inline;fill:url(#radialGradient4843-3);stroke:#008000;stroke-width:0.264583;stroke-linecap:round;stroke-linejoin:round;stroke-opacity:0.999962;stop-color:#000000"
       d="m 35.173525,40.182005 c -0.380832,-1.064158 -0.181997,-2.197587 0.837192,-2.79828 1.019191,-0.600693 1.966469,-0.199192 2.523292,0.745564 0.556822,0.944755 0.509648,1.826132 -0.870234,2.081373 -0.418595,1.399142 -2.119823,1.006426 -2.49025,-0.02866 z"
       sodipodi:nodetypes="ssccs" />
    <path
       id="path4761-9"
       style="display:inline;fill:url(#radialGradient4843-34);stroke:#008000;stroke-width:0.264583;stroke-linecap:round;stroke-linejoin:round;stroke-opacity:0.999962;stop-color:#000000"
       d="m 32.799264,37.739382 c -0.17561,0.959655 -0.793515,1.716468 -1.772365,1.716468 -0.978851,0 -1.648597,-0.781838 -1.648598,-1.729817 0,-0.947979 0.766067,-2.121316 1.65225,-1.263081 0.886183,-0.858235 1.939526,0.342996 1.768713,1.27643 z"
       sodipodi:nodetypes="ssccs" />
    <path
       id="path4761-81-9"
       style="display:inline;fill:url(#radialGradient4843-29-1);stroke:#008000;stroke-width:0.264583;stroke-linecap:round;stroke-linejoin:round;stroke-opacity:0.999962;stop-color:#000000"
       d="m 33.9971,37.714375 c 1.153467,0.337537 1.174323,1.999826 0.496158,2.952013 -0.678166,0.952187 -1.927486,1.044378 -2.879673,0.366213 -0.952187,-0.678165 -1.599986,-2.262746 -0.123978,-2.510825 0.235284,-1.537271 1.338053,-1.149612 2.507493,-0.807401 z"
       sodipodi:nodetypes="ssccs" />
    <path
       id="path4761-7"
       style="display:inline;fill:url(#radialGradient4843-62);stroke:#008000;stroke-width:0.264583;stroke-linecap:round;stroke-linejoin:round;stroke-opacity:0.999962;stop-color:#000000"
       d="m 35.728568,34.237134 c -0.192719,1.06895 -0.87082,1.911958 -1.945031,1.911958 -1.074211,0 -1.809205,-0.870882 -1.809206,-1.926828 0,-1.055946 0.840698,-2.362915 1.813214,-1.406934 0.972515,-0.955981 2.128476,0.382059 1.941023,1.421804 z"
       sodipodi:nodetypes="ssccs" />
    <path
       id="path4761-81-0"
       style="display:inline;fill:url(#radialGradient4843-29-3);stroke:#008000;stroke-width:0.264583;stroke-linecap:round;stroke-linejoin:round;stroke-opacity:0.999962;stop-color:#000000"
       d="m 37.384024,36.583301 c 0.394219,1.135346 -0.947664,2.116666 -2.116667,2.116666 -1.169003,0 -1.968855,-0.964125 -1.968856,-2.133128 0,-1.169003 0.914884,-2.615906 1.973218,-1.557571 1.388645,-0.700161 1.712627,0.422966 2.112305,1.574033 z"
       sodipodi:nodetypes="ssccs" />
    <path
       id="path4761-81-4"
       style="display:inline;fill:url(#radialGradient4843-29-5);stroke:#008000;stroke-width:0.264583;stroke-linecap:round;stroke-linejoin:round;stroke-opacity:0.999962;stop-color:#000000"
       d="m 33.280264,33.371524 c 0.840672,0.858889 0.04528,2.318683 -1.012133,2.817116 -1.057418,0.498432 -2.192,-0.03263 -2.690433,-1.090045 -0.498433,-1.057418 -0.2878,-2.756293 1.12076,-2.250226 0.957563,-1.225411 1.729493,-0.347627 2.581806,0.523155 z"
       sodipodi:nodetypes="ssccs" />
    <path
       id="path4761-81-0-9"
       style="display:inline;fill:url(#radialGradient4843-29-3-2);stroke:#008000;stroke-width:0.264583;stroke-linecap:round;stroke-linejoin:round;stroke-opacity:0.999962;stop-color:#000000"
       d="m 36.207837,31.761858 c 0.394219,1.135346 -0.947664,2.116666 -2.116667,2.116666 -1.169003,0 -1.968855,-0.964125 -1.968856,-2.133128 0,-1.169003 0.914884,-2.615906 1.973218,-1.557571 1.388645,-0.700161 1.712627,0.422966 2.112305,1.574033 z"
       sodipodi:nodetypes="ssccs" />
    <path
       id="path4761-81-6"
       style="display:inline;fill:url(#radialGradient4843-29-0);stroke:#008000;stroke-width:0.264583;stroke-linecap:round;stroke-linejoin:round;stroke-opacity:0.999962;stop-color:#000000"
       d="m 36.234302,28.618442 c -0.02232,1.042717 -1.62552,1.232701 -2.725945,0.738544 -1.100427,-0.494158 -1.519277,-1.576223 -1.114205,-2.478267 0.405073,-0.902045 1.767654,-1.63179 2.397179,-0.367765 1.549797,0.04674 1.465597,1.050333 1.442971,2.107488 z"
       sodipodi:nodetypes="ssccs" />
    <path
       id="path4761-81-5"
       style="display:inline;fill:url(#radialGradient4843-29-2);stroke:#008000;stroke-width:0.264583;stroke-linecap:round;stroke-linejoin:round;stroke-opacity:0.999962;stop-color:#000000"
       d="m 39.695348,30.275551 c 1.117415,0.442497 0.984848,2.099622 0.221742,2.985194 -0.763106,0.885571 -2.015604,0.862129 -2.901176,0.09902 -0.885572,-0.763106 -1.384443,-2.400686 0.108156,-2.511557 0.376082,-1.509013 1.438391,-1.021285 2.571278,-0.57266 z"
       sodipodi:nodetypes="ssccs" />
    <path
       id="path4761-81-7"
       style="display:inline;fill:url(#radialGradient4843-29-6);stroke:#008000;stroke-width:0.264583;stroke-linecap:round;stroke-linejoin:round;stroke-opacity:0.999962;stop-color:#000000"
       d="m 38.335351,37.543433 c -1.201831,-0.0047 -1.682486,-1.596115 -1.294724,-2.698933 0.387761,-1.102819 1.562614,-1.537584 2.665433,-1.149823 1.102819,0.387762 2.164334,1.73079 0.814866,2.378153 0.199903,1.542271 -0.967103,1.475366 -2.185575,1.470603 z"
       sodipodi:nodetypes="ssccs" />
  </g>
</svg>
