<?xml version="1.0" encoding="UTF-8" standalone="no"?>
<svg
   width="256"
   height="256"
   viewBox="0 0 67.73333 67.733335"
   version="1.1"
   id="svg8"
   inkscape:version="1.1.2 (0a00cf5339, 2022-02-04)"
   sodipodi:docname="wine_glass.svg"
   xmlns:inkscape="http://www.inkscape.org/namespaces/inkscape"
   xmlns:sodipodi="http://sodipodi.sourceforge.net/DTD/sodipodi-0.dtd"
   xmlns:xlink="http://www.w3.org/1999/xlink"
   xmlns="http://www.w3.org/2000/svg"
   xmlns:svg="http://www.w3.org/2000/svg"
   xmlns:rdf="http://www.w3.org/1999/02/22-rdf-syntax-ns#"
   xmlns:cc="http://creativecommons.org/ns#"
   xmlns:dc="http://purl.org/dc/elements/1.1/">
  <defs
     id="defs2">
    <linearGradient
       inkscape:collect="always"
       id="linearGradient1052">
      <stop
         style="stop-color:#ff2a2a;stop-opacity:0"
         offset="0"
         id="stop1048" />
      <stop
         style="stop-color:#aaeeff;stop-opacity:1"
         offset="1"
         id="stop1050" />
    </linearGradient>
    <radialGradient
       inkscape:collect="always"
       xlink:href="#linearGradient1052"
       id="radialGradient1046"
       cx="-33.86668"
       cy="29.228989"
       fx="-33.86668"
       fy="29.228989"
       r="4.4979166"
       gradientUnits="userSpaceOnUse"
       gradientTransform="matrix(-0.94117638,-2.9457777e-8,-1.8585144e-6,-1,-65.741132,58.457975)" />
  </defs>
  <sodipodi:namedview
     id="base"
     pagecolor="#ffffff"
     bordercolor="#666666"
     borderopacity="1.0"
     inkscape:pageopacity="0"
     inkscape:pageshadow="2"
     inkscape:zoom="11.2"
     inkscape:cx="135.40179"
     inkscape:cy="140"
     inkscape:document-units="px"
     inkscape:current-layer="g1123"
     inkscape:document-rotation="0"
     showgrid="true"
     units="px"
     inkscape:window-width="2560"
     inkscape:window-height="1349"
     inkscape:window-x="1200"
     inkscape:window-y="240"
     inkscape:window-maximized="1"
     inkscape:snap-grids="true"
     inkscape:pagecheckerboard="0">
    <inkscape:grid
       type="xygrid"
       id="grid833"
       units="px"
       empspacing="4"
       spacingy="1.0583333"
       spacingx="1.0583333" />
  </sodipodi:namedview>
  <metadata
     id="metadata5">
    <rdf:RDF>
      <cc:Work
         rdf:about="">
        <dc:format>image/svg+xml</dc:format>
        <dc:type
           rdf:resource="http://purl.org/dc/dcmitype/StillImage" />
      </cc:Work>
    </rdf:RDF>
  </metadata>
  <g
     inkscape:label="Object"
     inkscape:groupmode="layer"
     id="layer1"
     style="opacity:1">
    <g
       id="g1123"
       style="fill:#ff0000;fill-opacity:1;stroke:#ff0000"
       transform="rotate(90,31.547827,36.185505)">
      <rect
         style="fill:#ff2a2a;fill-opacity:1;stroke:#d5f6ff;stroke-width:0.52916666;stroke-linecap:round;stroke-linejoin:round;stop-color:#000000;stroke-miterlimit:4;stroke-dasharray:none"
         id="rect1369"
         width="8.4666662"
         height="8.4666662"
         x="-38.099998"
         y="24.995655"
         transform="rotate(-90)"
         ry="4.2333331"
         rx="4.2333331" />
      <rect
         style="fill:url(#radialGradient1046);fill-opacity:1;stroke:#d5f6ff;stroke-width:0.529167;stroke-linecap:round;stroke-linejoin:round;stroke-miterlimit:4;stroke-dasharray:none;stop-color:#000000"
         id="rect1369-84"
         width="8.4666662"
         height="8.4666662"
         x="-38.099998"
         y="24.995655"
         transform="rotate(-90)"
         ry="4.2333331"
         rx="4.2333331" />
      <rect
         style="fill:#ff2a2a;fill-opacity:1;stroke:#d5f6ff;stroke-width:0.264583;stroke-linecap:round;stroke-linejoin:round;stroke-miterlimit:4;stroke-dasharray:none;stop-color:#000000"
         id="rect1369-8"
         width="6.3500009"
         height="6.3500009"
         x="-37.041668"
         y="26.053988"
         transform="rotate(-90)"
         ry="4.2333331"
         rx="4.2333331" />
    </g>
  </g>
</svg>
