<?xml version="1.0" encoding="UTF-8" standalone="no"?>
<!-- Created with Inkscape (http://www.inkscape.org/) -->

<svg
   width="1024"
   height="1024"
   viewBox="0 0 270.93333 270.93334"
   version="1.1"
   id="svg5"
   inkscape:version="1.1.2 (0a00cf5339, 2022-02-04)"
   sodipodi:docname="carpet_hotel.svg"
   xmlns:inkscape="http://www.inkscape.org/namespaces/inkscape"
   xmlns:sodipodi="http://sodipodi.sourceforge.net/DTD/sodipodi-0.dtd"
   xmlns="http://www.w3.org/2000/svg"
   xmlns:svg="http://www.w3.org/2000/svg">
  <sodipodi:namedview
     id="namedview7"
     pagecolor="#ffffff"
     bordercolor="#666666"
     borderopacity="1.0"
     inkscape:pageshadow="2"
     inkscape:pageopacity="0.0"
     inkscape:pagecheckerboard="0"
     inkscape:document-units="mm"
     showgrid="true"
     inkscape:zoom="0.83402488"
     inkscape:cx="351.90797"
     inkscape:cy="504.7811"
     inkscape:window-width="2560"
     inkscape:window-height="1349"
     inkscape:window-x="1200"
     inkscape:window-y="240"
     inkscape:window-maximized="1"
     inkscape:current-layer="layer3"
     units="px"
     width="1024px">
    <inkscape:grid
       type="xygrid"
       id="grid844"
       empspacing="8"
       units="px"
       spacingx="2.1166667"
       spacingy="2.1166667" />
  </sodipodi:namedview>
  <defs
     id="defs2" />
  <g
     inkscape:label="Floor"
     inkscape:groupmode="layer"
     id="layer1"
     style="display:inline"
     sodipodi:insensitive="true">
    <rect
       style="fill:#999999;fill-opacity:1;stroke:none;stroke-width:0.529167;stroke-linejoin:bevel;stroke-miterlimit:4;stroke-dasharray:none;stroke-opacity:0.999964;stop-color:#000000"
       id="rect2901"
       width="270.93301"
       height="270.93335"
       x="0"
       y="0"
       rx="0"
       ry="0" />
  </g>
  <g
     inkscape:groupmode="layer"
     id="layer3"
     inkscape:label="Extra"
     style="display:inline">
    <path
       style="display:inline;fill:#008080;stroke:#0044aa;stroke-width:8.46667;stroke-linecap:butt;stroke-linejoin:round;stroke-miterlimit:4;stroke-dasharray:none;stroke-opacity:0.999962;stop-color:#000000"
       d="m 25.4,19.05 h 16.933334 l 8.466667,14.816667 -8.466667,14.816667 H 25.4 L 16.933334,33.866667 Z"
       id="path4714-5"
       sodipodi:nodetypes="ccccccc" />
    <path
       style="display:inline;fill:#008080;stroke:#0044aa;stroke-width:8.46667;stroke-linecap:butt;stroke-linejoin:round;stroke-miterlimit:4;stroke-dasharray:none;stroke-opacity:0.999962;stop-color:#000000"
       d="m 93.133333,19.050001 h 16.933337 l 8.46667,14.816666 -8.46667,14.816667 H 93.133333 L 84.666667,33.866667 Z"
       id="path4714-5-8"
       sodipodi:nodetypes="ccccccc" />
    <path
       style="display:inline;fill:#008080;stroke:#0044aa;stroke-width:8.46667;stroke-linecap:butt;stroke-linejoin:round;stroke-miterlimit:4;stroke-dasharray:none;stroke-opacity:0.999962;stop-color:#000000"
       d="M 25.4,86.783335 H 42.333334 L 50.800001,101.6 42.333334,116.41667 H 25.4 L 16.933334,101.6 Z"
       id="path4714-5-6"
       sodipodi:nodetypes="ccccccc" />
    <path
       style="display:inline;fill:#008080;stroke:#0044aa;stroke-width:8.46667;stroke-linecap:butt;stroke-linejoin:round;stroke-miterlimit:4;stroke-dasharray:none;stroke-opacity:0.999962;stop-color:#000000"
       d="M 93.133335,86.783335 H 110.06667 L 118.53334,101.6 110.06667,116.41667 H 93.133335 L 84.666669,101.6 Z"
       id="path4714-5-8-2"
       sodipodi:nodetypes="ccccccc" />
    <path
       style="display:inline;fill:#008080;stroke:#0044aa;stroke-width:8.46667;stroke-linecap:butt;stroke-linejoin:round;stroke-miterlimit:4;stroke-dasharray:none;stroke-opacity:0.999962;stop-color:#000000"
       d="m 59.266659,52.916666 h 16.933339 l 8.46667,14.816668 -8.46667,14.816667 H 59.266659 L 50.799993,67.733334 Z"
       id="path4714-5-8-8"
       sodipodi:nodetypes="ccccccc" />
    <path
       style="display:inline;fill:#008080;stroke:#0044aa;stroke-width:8.46667;stroke-linecap:butt;stroke-linejoin:round;stroke-miterlimit:4;stroke-dasharray:none;stroke-opacity:0.999962;stop-color:#000000"
       d="m 59.266668,120.65 h 16.933339 l 8.46667,14.81667 -8.46667,14.81666 H 59.266668 l -8.466666,-14.81666 z"
       id="path4714-5-8-2-4"
       sodipodi:nodetypes="ccccccc" />
    <path
       style="display:inline;fill:#008080;stroke:#0044aa;stroke-width:8.46667;stroke-linecap:butt;stroke-linejoin:round;stroke-miterlimit:4;stroke-dasharray:none;stroke-opacity:0.999962;stop-color:#000000"
       d="M -8.4666692,52.916668 H 8.4666668 L 16.933337,67.733336 8.4666668,82.550004 H -8.4666692 L -16.933335,67.733336 Z"
       id="path4714-5-8-7"
       sodipodi:nodetypes="ccccccc" />
    <path
       style="display:inline;fill:#008080;stroke:#0044aa;stroke-width:8.46667;stroke-linecap:butt;stroke-linejoin:round;stroke-miterlimit:4;stroke-dasharray:none;stroke-opacity:0.999962;stop-color:#000000"
       d="m -8.4666676,120.65 h 16.933336 l 8.4666696,14.81667 -8.4666696,14.81666 h -16.933336 l -8.4666664,-14.81666 z"
       id="path4714-5-8-2-2"
       sodipodi:nodetypes="ccccccc" />
    <path
       style="display:inline;fill:#008080;stroke:#0044aa;stroke-width:8.46666667;stroke-linecap:butt;stroke-linejoin:round;stroke-miterlimit:4;stroke-dasharray:none;stroke-opacity:0.999962;stop-color:#000000"
       d="M 59.266662,-14.816667 H 76.199998 L 84.666668,0 76.199998,14.816667 H 59.266662 L 50.799996,0 Z"
       id="path4714-5-8-2-0"
       sodipodi:nodetypes="ccccccc" />
    <path
       style="display:inline;fill:#008080;stroke:#0044aa;stroke-width:8.46666667;stroke-linecap:butt;stroke-linejoin:round;stroke-miterlimit:4;stroke-dasharray:none;stroke-opacity:0.999962;stop-color:#000000"
       d="M -8.4666692,-14.816667 H 8.4666668 L 16.933337,-1e-7 8.4666668,14.816667 H -8.4666692 L -16.933335,-1e-7 Z"
       id="path4714-5-8-2-0-2"
       sodipodi:nodetypes="ccccccc" />
    <path
       style="fill:#008080;stroke:#0044aa;stroke-width:16.9333;stroke-linecap:butt;stroke-linejoin:round;stroke-miterlimit:4;stroke-dasharray:none;stroke-opacity:0.999962;stop-color:#000000"
       d="M 48.683334,33.866667 H 86.783335"
       id="path10284"
       sodipodi:nodetypes="cc" />
    <path
       style="display:inline;fill:#008080;stroke:#0044aa;stroke-width:16.9333;stroke-linecap:butt;stroke-linejoin:round;stroke-miterlimit:4;stroke-dasharray:none;stroke-opacity:0.999962;stop-color:#000000"
       d="M 14.816667,0 H 52.916668"
       id="path10284-9"
       sodipodi:nodetypes="cc" />
    <path
       style="display:inline;fill:#008080;stroke:#0044aa;stroke-width:16.9333;stroke-linecap:butt;stroke-linejoin:round;stroke-miterlimit:4;stroke-dasharray:none;stroke-opacity:0.999962;stop-color:#000000"
       d="M -16.933334,33.866667 H 21.166667"
       id="path10284-90"
       sodipodi:nodetypes="cc" />
    <path
       style="display:inline;fill:#008080;stroke:#0044aa;stroke-width:16.9333;stroke-linecap:butt;stroke-linejoin:round;stroke-miterlimit:4;stroke-dasharray:none;stroke-opacity:0.999962;stop-color:#000000"
       d="M 14.816667,67.733334 H 52.916668"
       id="path10284-8"
       sodipodi:nodetypes="cc" />
    <path
       style="display:inline;fill:#008080;stroke:#0044aa;stroke-width:16.9333;stroke-linecap:butt;stroke-linejoin:round;stroke-miterlimit:4;stroke-dasharray:none;stroke-opacity:0.999962;stop-color:#000000"
       d="M 82.550001,67.733334 H 120.65"
       id="path10284-1"
       sodipodi:nodetypes="cc" />
    <path
       style="display:inline;fill:#008080;stroke:#0044aa;stroke-width:16.9333;stroke-linecap:butt;stroke-linejoin:round;stroke-miterlimit:4;stroke-dasharray:none;stroke-opacity:0.999962;stop-color:#000000"
       d="M 48.683334,101.6 H 86.783337"
       id="path10284-3"
       sodipodi:nodetypes="cc" />
    <path
       style="display:inline;fill:#008080;stroke:#0044aa;stroke-width:16.9333;stroke-linecap:butt;stroke-linejoin:round;stroke-miterlimit:4;stroke-dasharray:none;stroke-opacity:0.999962;stop-color:#000000"
       d="M 82.550001,0 H 120.65"
       id="path10284-11"
       sodipodi:nodetypes="cc" />
    <path
       style="display:inline;fill:#008080;stroke:#0044aa;stroke-width:16.9333;stroke-linecap:butt;stroke-linejoin:round;stroke-miterlimit:4;stroke-dasharray:none;stroke-opacity:0.999962;stop-color:#000000"
       d="M -19.05,101.6 H 19.049996"
       id="path10284-0"
       sodipodi:nodetypes="cc" />
    <path
       style="display:inline;fill:#008080;stroke:#0044aa;stroke-width:8.46667;stroke-linecap:butt;stroke-linejoin:round;stroke-miterlimit:4;stroke-dasharray:none;stroke-opacity:0.999962;stop-color:#000000"
       d="m 127.00001,120.65001 h 16.93333 l 8.46667,14.81666 -8.46667,14.81667 h -16.93333 l -8.46667,-14.81667 z"
       id="path4714-5-6-6"
       sodipodi:nodetypes="ccccccc" />
    <path
       style="display:inline;fill:#008080;stroke:#0044aa;stroke-width:16.9333;stroke-linecap:butt;stroke-linejoin:round;stroke-miterlimit:4;stroke-dasharray:none;stroke-opacity:0.999962;stop-color:#000000"
       d="M 82.550006,135.46667 H 120.65"
       id="path10284-0-7"
       sodipodi:nodetypes="cc" />
    <path
       style="display:inline;fill:#008080;stroke:#0044aa;stroke-width:16.9333;stroke-linecap:butt;stroke-linejoin:round;stroke-miterlimit:4;stroke-dasharray:none;stroke-opacity:0.999962;stop-color:#000000"
       d="M 12.7,135.46667 H 50.799996"
       id="path10284-0-2"
       sodipodi:nodetypes="cc" />
    <path
       style="display:inline;fill:#008080;stroke:#0044aa;stroke-width:16.9333;stroke-linecap:butt;stroke-linejoin:round;stroke-miterlimit:4;stroke-dasharray:none;stroke-opacity:0.999962;stop-color:#000000"
       d="m 251.88334,101.6 h 38.09999"
       id="path10284-0-6"
       sodipodi:nodetypes="cc" />
    <path
       style="display:inline;fill:#008080;stroke:#0044aa;stroke-width:8.46667;stroke-linecap:butt;stroke-linejoin:round;stroke-miterlimit:4;stroke-dasharray:none;stroke-opacity:0.999962;stop-color:#000000"
       d="M 160.86667,19.05 H 177.8 L 186.26667,33.866667 177.8,48.683334 H 160.86667 L 152.4,33.866667 Z"
       id="path4714-5-3"
       sodipodi:nodetypes="ccccccc" />
    <path
       style="display:inline;fill:#008080;stroke:#0044aa;stroke-width:8.46667;stroke-linecap:butt;stroke-linejoin:round;stroke-miterlimit:4;stroke-dasharray:none;stroke-opacity:0.999962;stop-color:#000000"
       d="m 228.6,19.050001 h 16.93334 l 8.46667,14.816666 -8.46667,14.816667 H 228.6 l -8.46666,-14.816667 z"
       id="path4714-5-8-4"
       sodipodi:nodetypes="ccccccc" />
    <path
       style="display:inline;fill:#008080;stroke:#0044aa;stroke-width:8.46667;stroke-linecap:butt;stroke-linejoin:round;stroke-miterlimit:4;stroke-dasharray:none;stroke-opacity:0.999962;stop-color:#000000"
       d="M 160.86667,86.783335 H 177.8 L 186.26667,101.59999 177.8,116.41666 H 160.86667 L 152.4,101.59999 Z"
       id="path4714-5-6-0"
       sodipodi:nodetypes="ccccccc" />
    <path
       style="display:inline;fill:#008080;stroke:#0044aa;stroke-width:8.46667;stroke-linecap:butt;stroke-linejoin:round;stroke-miterlimit:4;stroke-dasharray:none;stroke-opacity:0.999962;stop-color:#000000"
       d="m 228.60001,86.783335 h 16.93333 l 8.46667,14.816655 -8.46667,14.81667 h -16.93333 l -8.46667,-14.81667 z"
       id="path4714-5-8-2-3"
       sodipodi:nodetypes="ccccccc" />
    <path
       style="display:inline;fill:#008080;stroke:#0044aa;stroke-width:8.46667;stroke-linecap:butt;stroke-linejoin:round;stroke-miterlimit:4;stroke-dasharray:none;stroke-opacity:0.999962;stop-color:#000000"
       d="m 194.73333,52.916666 h 16.93334 l 8.46667,14.816668 -8.46667,14.816667 h -16.93334 l -8.46667,-14.816667 z"
       id="path4714-5-8-8-9"
       sodipodi:nodetypes="ccccccc" />
    <path
       style="display:inline;fill:#008080;stroke:#0044aa;stroke-width:8.46667;stroke-linecap:butt;stroke-linejoin:round;stroke-miterlimit:4;stroke-dasharray:none;stroke-opacity:0.999962;stop-color:#000000"
       d="m 127,52.916668 h 16.93334 l 8.46667,14.816668 -8.46667,14.816668 H 127 l -8.46666,-14.816668 z"
       id="path4714-5-8-7-1"
       sodipodi:nodetypes="ccccccc" />
    <path
       style="display:inline;fill:#008080;stroke:#0044aa;stroke-width:8.46667;stroke-linecap:butt;stroke-linejoin:round;stroke-miterlimit:4;stroke-dasharray:none;stroke-opacity:0.999962;stop-color:#000000"
       d="m 194.73333,-14.816667 h 16.93334 L 220.13334,-1e-7 211.66667,14.816667 H 194.73333 L 186.26667,-1e-7 Z"
       id="path4714-5-8-2-0-9"
       sodipodi:nodetypes="ccccccc" />
    <path
       style="display:inline;fill:#008080;stroke:#0044aa;stroke-width:8.46667;stroke-linecap:butt;stroke-linejoin:round;stroke-miterlimit:4;stroke-dasharray:none;stroke-opacity:0.999962;stop-color:#000000"
       d="m 127,-14.816667 h 16.93334 L 152.40001,-2e-7 143.93334,14.816667 H 127 L 118.53334,-2e-7 Z"
       id="path4714-5-8-2-0-2-6"
       sodipodi:nodetypes="ccccccc" />
    <path
       style="display:inline;fill:#008080;stroke:#0044aa;stroke-width:16.9333;stroke-linecap:butt;stroke-linejoin:round;stroke-miterlimit:4;stroke-dasharray:none;stroke-opacity:0.999962;stop-color:#000000"
       d="m 184.15,33.866667 h 38.10001"
       id="path10284-93"
       sodipodi:nodetypes="cc" />
    <path
       style="display:inline;fill:#008080;stroke:#0044aa;stroke-width:8.46667;stroke-linecap:butt;stroke-linejoin:round;stroke-miterlimit:4;stroke-dasharray:none;stroke-opacity:0.999962;stop-color:#000000"
       d="M 262.46666,52.916666 H 279.4 L 287.86667,67.733334 279.4,82.550001 h -16.93334 l -8.46667,-14.816667 z"
       id="path4714-5-8-8-9-0"
       sodipodi:nodetypes="ccccccc" />
    <path
       style="display:inline;fill:#008080;stroke:#0044aa;stroke-width:8.46667;stroke-linecap:butt;stroke-linejoin:round;stroke-miterlimit:4;stroke-dasharray:none;stroke-opacity:0.999962;stop-color:#000000"
       d="M 262.46666,-14.816667 H 279.4 L 287.86667,0 279.4,14.816667 H 262.46666 L 254,0 Z"
       id="path4714-5-8-2-0-9-0"
       sodipodi:nodetypes="ccccccc" />
    <path
       style="display:inline;fill:#008080;stroke:#0044aa;stroke-width:16.9333;stroke-linecap:butt;stroke-linejoin:round;stroke-miterlimit:4;stroke-dasharray:none;stroke-opacity:0.999962;stop-color:#000000"
       d="m 251.88333,33.866667 h 38.10001"
       id="path10284-93-4"
       sodipodi:nodetypes="cc" />
    <path
       style="display:inline;fill:#008080;stroke:#0044aa;stroke-width:16.9333;stroke-linecap:butt;stroke-linejoin:round;stroke-miterlimit:4;stroke-dasharray:none;stroke-opacity:0.999962;stop-color:#000000"
       d="m 150.28334,-1e-7 h 38.1"
       id="path10284-9-3"
       sodipodi:nodetypes="cc" />
    <path
       style="display:inline;fill:#008080;stroke:#0044aa;stroke-width:16.9333;stroke-linecap:butt;stroke-linejoin:round;stroke-miterlimit:4;stroke-dasharray:none;stroke-opacity:0.999962;stop-color:#000000"
       d="m 116.41667,33.866667 h 38.1"
       id="path10284-90-8"
       sodipodi:nodetypes="cc" />
    <path
       style="display:inline;fill:#008080;stroke:#0044aa;stroke-width:16.9333;stroke-linecap:butt;stroke-linejoin:round;stroke-miterlimit:4;stroke-dasharray:none;stroke-opacity:0.999962;stop-color:#000000"
       d="m 150.28334,67.733334 h 38.1"
       id="path10284-8-0"
       sodipodi:nodetypes="cc" />
    <path
       style="display:inline;fill:#008080;stroke:#0044aa;stroke-width:16.9333;stroke-linecap:butt;stroke-linejoin:round;stroke-miterlimit:4;stroke-dasharray:none;stroke-opacity:0.999962;stop-color:#000000"
       d="m 218.01667,67.733334 h 38.1"
       id="path10284-1-5"
       sodipodi:nodetypes="cc" />
    <path
       style="display:inline;fill:#008080;stroke:#0044aa;stroke-width:16.9333;stroke-linecap:butt;stroke-linejoin:round;stroke-miterlimit:4;stroke-dasharray:none;stroke-opacity:0.999962;stop-color:#000000"
       d="m 184.15,101.59999 h 38.10001"
       id="path10284-3-6"
       sodipodi:nodetypes="cc" />
    <path
       style="display:inline;fill:#008080;stroke:#0044aa;stroke-width:16.9333;stroke-linecap:butt;stroke-linejoin:round;stroke-miterlimit:4;stroke-dasharray:none;stroke-opacity:0.999962;stop-color:#000000"
       d="m 218.01667,-1e-7 h 38.1"
       id="path10284-11-6"
       sodipodi:nodetypes="cc" />
    <path
       style="display:inline;fill:#008080;stroke:#0044aa;stroke-width:16.9333;stroke-linecap:butt;stroke-linejoin:round;stroke-miterlimit:4;stroke-dasharray:none;stroke-opacity:0.999962;stop-color:#000000"
       d="m 116.41667,101.59999 h 38.1"
       id="path10284-0-4"
       sodipodi:nodetypes="cc" />
    <path
       style="display:inline;fill:#008080;stroke:#0044aa;stroke-width:8.46667;stroke-linecap:butt;stroke-linejoin:round;stroke-miterlimit:4;stroke-dasharray:none;stroke-opacity:0.999962;stop-color:#000000"
       d="m 194.73334,120.65001 h 16.93333 l 8.46667,14.81666 -8.46667,14.81667 h -16.93333 l -8.46667,-14.81667 z"
       id="path4714-5-6-0-5"
       sodipodi:nodetypes="ccccccc" />
    <path
       style="display:inline;fill:#008080;stroke:#0044aa;stroke-width:8.46667;stroke-linecap:butt;stroke-linejoin:round;stroke-miterlimit:4;stroke-dasharray:none;stroke-opacity:0.999962;stop-color:#000000"
       d="m 262.46668,120.65001 h 16.93333 l 8.46667,14.81666 -8.46667,14.81667 h -16.93333 l -8.46667,-14.81667 z"
       id="path4714-5-8-2-3-6"
       sodipodi:nodetypes="ccccccc" />
    <path
       style="display:inline;fill:#008080;stroke:#0044aa;stroke-width:16.9333;stroke-linecap:butt;stroke-linejoin:round;stroke-miterlimit:4;stroke-dasharray:none;stroke-opacity:0.999962;stop-color:#000000"
       d="m 218.01667,135.46667 h 38.10001"
       id="path10284-3-6-9"
       sodipodi:nodetypes="cc" />
    <path
       style="display:inline;fill:#008080;stroke:#0044aa;stroke-width:16.9333;stroke-linecap:butt;stroke-linejoin:round;stroke-miterlimit:4;stroke-dasharray:none;stroke-opacity:0.999962;stop-color:#000000"
       d="m 150.28334,135.46667 h 38.1"
       id="path10284-0-4-8"
       sodipodi:nodetypes="cc" />
    <path
       style="display:inline;fill:#008080;stroke:#0044aa;stroke-width:8.46667;stroke-linecap:butt;stroke-linejoin:round;stroke-miterlimit:4;stroke-dasharray:none;stroke-opacity:0.999962;stop-color:#000000"
       d="m 25.399998,154.51668 h 16.933334 l 8.466667,14.81667 -8.466667,14.81667 H 25.399998 l -8.466666,-14.81667 z"
       id="path4714-5-6-7"
       sodipodi:nodetypes="ccccccc" />
    <path
       style="display:inline;fill:#008080;stroke:#0044aa;stroke-width:8.46667;stroke-linecap:butt;stroke-linejoin:round;stroke-miterlimit:4;stroke-dasharray:none;stroke-opacity:0.999962;stop-color:#000000"
       d="m 93.133333,154.51668 h 16.933337 l 8.46667,14.81667 -8.46667,14.81667 H 93.133333 l -8.466666,-14.81667 z"
       id="path4714-5-8-2-28"
       sodipodi:nodetypes="ccccccc" />
    <path
       style="display:inline;fill:#008080;stroke:#0044aa;stroke-width:8.46667;stroke-linecap:butt;stroke-linejoin:round;stroke-miterlimit:4;stroke-dasharray:none;stroke-opacity:0.999962;stop-color:#000000"
       d="m 59.266666,188.38335 h 16.933339 l 8.46667,14.81667 -8.46667,14.81666 H 59.266666 L 50.8,203.20002 Z"
       id="path4714-5-8-2-4-2"
       sodipodi:nodetypes="ccccccc" />
    <path
       style="display:inline;fill:#008080;stroke:#0044aa;stroke-width:8.46667;stroke-linecap:butt;stroke-linejoin:round;stroke-miterlimit:4;stroke-dasharray:none;stroke-opacity:0.999962;stop-color:#000000"
       d="M -8.4666676,188.38333 H 8.4666689 L 16.933338,203.2 8.4666689,218.01666 H -8.4666676 L -16.933334,203.2 Z"
       id="path4714-5-8-2-2-9"
       sodipodi:nodetypes="ccccccc" />
    <path
       style="display:inline;fill:#008080;stroke:#0044aa;stroke-width:16.9333;stroke-linecap:butt;stroke-linejoin:round;stroke-miterlimit:4;stroke-dasharray:none;stroke-opacity:0.999962;stop-color:#000000"
       d="M 48.683332,169.33335 H 86.783335"
       id="path10284-3-9"
       sodipodi:nodetypes="cc" />
    <path
       style="display:inline;fill:#008080;stroke:#0044aa;stroke-width:16.9333;stroke-linecap:butt;stroke-linejoin:round;stroke-miterlimit:4;stroke-dasharray:none;stroke-opacity:0.999962;stop-color:#000000"
       d="M -19.050002,169.33335 H 19.049994"
       id="path10284-0-60"
       sodipodi:nodetypes="cc" />
    <path
       style="display:inline;fill:#008080;stroke:#0044aa;stroke-width:8.46667;stroke-linecap:butt;stroke-linejoin:round;stroke-miterlimit:4;stroke-dasharray:none;stroke-opacity:0.999962;stop-color:#000000"
       d="m 127.00001,188.38336 h 16.93333 l 8.46667,14.81666 -8.46667,14.81667 h -16.93333 l -8.46667,-14.81667 z"
       id="path4714-5-6-6-2"
       sodipodi:nodetypes="ccccccc" />
    <path
       style="display:inline;fill:#008080;stroke:#0044aa;stroke-width:16.9333;stroke-linecap:butt;stroke-linejoin:round;stroke-miterlimit:4;stroke-dasharray:none;stroke-opacity:0.999962;stop-color:#000000"
       d="M 82.550004,203.20002 H 120.65"
       id="path10284-0-7-7"
       sodipodi:nodetypes="cc" />
    <path
       style="display:inline;fill:#008080;stroke:#0044aa;stroke-width:16.9333;stroke-linecap:butt;stroke-linejoin:round;stroke-miterlimit:4;stroke-dasharray:none;stroke-opacity:0.999962;stop-color:#000000"
       d="M 12.699998,203.20002 H 50.799994"
       id="path10284-0-2-6"
       sodipodi:nodetypes="cc" />
    <path
       style="display:inline;fill:#008080;stroke:#0044aa;stroke-width:16.9333;stroke-linecap:butt;stroke-linejoin:round;stroke-miterlimit:4;stroke-dasharray:none;stroke-opacity:0.999962;stop-color:#000000"
       d="m 251.88334,169.33335 h 38.09999"
       id="path10284-0-6-1"
       sodipodi:nodetypes="cc" />
    <path
       style="display:inline;fill:#008080;stroke:#0044aa;stroke-width:8.46667;stroke-linecap:butt;stroke-linejoin:round;stroke-miterlimit:4;stroke-dasharray:none;stroke-opacity:0.999962;stop-color:#000000"
       d="M 160.86667,154.51668 H 177.8 l 8.46667,14.81666 L 177.8,184.15001 H 160.86667 L 152.4,169.33334 Z"
       id="path4714-5-6-0-3"
       sodipodi:nodetypes="ccccccc" />
    <path
       style="display:inline;fill:#008080;stroke:#0044aa;stroke-width:8.46667;stroke-linecap:butt;stroke-linejoin:round;stroke-miterlimit:4;stroke-dasharray:none;stroke-opacity:0.999962;stop-color:#000000"
       d="m 228.60001,154.51668 h 16.93333 l 8.46667,14.81666 -8.46667,14.81667 h -16.93333 l -8.46667,-14.81667 z"
       id="path4714-5-8-2-3-2"
       sodipodi:nodetypes="ccccccc" />
    <path
       style="display:inline;fill:#008080;stroke:#0044aa;stroke-width:16.9333;stroke-linecap:butt;stroke-linejoin:round;stroke-miterlimit:4;stroke-dasharray:none;stroke-opacity:0.999962;stop-color:#000000"
       d="m 184.15,169.33334 h 38.10001"
       id="path10284-3-6-1"
       sodipodi:nodetypes="cc" />
    <path
       style="display:inline;fill:#008080;stroke:#0044aa;stroke-width:16.9333;stroke-linecap:butt;stroke-linejoin:round;stroke-miterlimit:4;stroke-dasharray:none;stroke-opacity:0.999962;stop-color:#000000"
       d="m 116.41667,169.33334 h 38.1"
       id="path10284-0-4-5"
       sodipodi:nodetypes="cc" />
    <path
       style="display:inline;fill:#008080;stroke:#0044aa;stroke-width:8.46667;stroke-linecap:butt;stroke-linejoin:round;stroke-miterlimit:4;stroke-dasharray:none;stroke-opacity:0.999962;stop-color:#000000"
       d="m 194.73334,188.38336 h 16.93333 l 8.46667,14.81666 -8.46667,14.81667 h -16.93333 l -8.46667,-14.81667 z"
       id="path4714-5-6-0-5-9"
       sodipodi:nodetypes="ccccccc" />
    <path
       style="display:inline;fill:#008080;stroke:#0044aa;stroke-width:8.46667;stroke-linecap:butt;stroke-linejoin:round;stroke-miterlimit:4;stroke-dasharray:none;stroke-opacity:0.999962;stop-color:#000000"
       d="m 262.46668,188.38336 h 16.93333 l 8.46667,14.81666 -8.46667,14.81667 h -16.93333 l -8.46667,-14.81667 z"
       id="path4714-5-8-2-3-6-9"
       sodipodi:nodetypes="ccccccc" />
    <path
       style="display:inline;fill:#008080;stroke:#0044aa;stroke-width:16.9333;stroke-linecap:butt;stroke-linejoin:round;stroke-miterlimit:4;stroke-dasharray:none;stroke-opacity:0.999962;stop-color:#000000"
       d="m 218.01667,203.20002 h 38.10001"
       id="path10284-3-6-9-1"
       sodipodi:nodetypes="cc" />
    <path
       style="display:inline;fill:#008080;stroke:#0044aa;stroke-width:16.9333;stroke-linecap:butt;stroke-linejoin:round;stroke-miterlimit:4;stroke-dasharray:none;stroke-opacity:0.999962;stop-color:#000000"
       d="m 150.28334,203.20002 h 38.1"
       id="path10284-0-4-8-4"
       sodipodi:nodetypes="cc" />
    <path
       style="display:inline;fill:#008080;stroke:#0044aa;stroke-width:8.46667;stroke-linecap:butt;stroke-linejoin:round;stroke-miterlimit:4;stroke-dasharray:none;stroke-opacity:0.999962;stop-color:#000000"
       d="m 25.4,222.25 h 16.933334 l 8.466667,14.81666 -8.466667,14.81667 H 25.4 l -8.466666,-14.81667 z"
       id="path4714-5-6-9"
       sodipodi:nodetypes="ccccccc" />
    <path
       style="display:inline;fill:#008080;stroke:#0044aa;stroke-width:8.46667;stroke-linecap:butt;stroke-linejoin:round;stroke-miterlimit:4;stroke-dasharray:none;stroke-opacity:0.999962;stop-color:#000000"
       d="m 93.133335,222.25 h 16.933335 l 8.46667,14.81666 -8.46667,14.81667 H 93.133335 l -8.466666,-14.81667 z"
       id="path4714-5-8-2-1"
       sodipodi:nodetypes="ccccccc" />
    <path
       style="display:inline;fill:#008080;stroke:#0044aa;stroke-width:8.46667;stroke-linecap:butt;stroke-linejoin:round;stroke-miterlimit:4;stroke-dasharray:none;stroke-opacity:0.999962;stop-color:#000000"
       d="m 59.266668,256.11666 h 16.933339 l 8.46667,14.81667 -8.46667,14.81666 H 59.266668 l -8.466666,-14.81666 z"
       id="path4714-5-8-2-4-0"
       sodipodi:nodetypes="ccccccc" />
    <path
       style="display:inline;fill:#008080;stroke:#0044aa;stroke-width:8.46667;stroke-linecap:butt;stroke-linejoin:round;stroke-miterlimit:4;stroke-dasharray:none;stroke-opacity:0.999962;stop-color:#000000"
       d="M -8.4666676,256.11667 H 8.4666682 L 16.933338,270.93334 8.4666682,285.75 H -8.4666676 l -8.4666664,-14.81666 z"
       id="path4714-5-8-2-2-7"
       sodipodi:nodetypes="ccccccc" />
    <path
       style="display:inline;fill:#008080;stroke:#0044aa;stroke-width:16.9333;stroke-linecap:butt;stroke-linejoin:round;stroke-miterlimit:4;stroke-dasharray:none;stroke-opacity:0.999962;stop-color:#000000"
       d="M 48.683334,237.06666 H 86.783337"
       id="path10284-3-5"
       sodipodi:nodetypes="cc" />
    <path
       style="display:inline;fill:#008080;stroke:#0044aa;stroke-width:16.9333;stroke-linecap:butt;stroke-linejoin:round;stroke-miterlimit:4;stroke-dasharray:none;stroke-opacity:0.999962;stop-color:#000000"
       d="M -19.05,237.06666 H 19.049996"
       id="path10284-0-8"
       sodipodi:nodetypes="cc" />
    <path
       style="display:inline;fill:#008080;stroke:#0044aa;stroke-width:8.46667;stroke-linecap:butt;stroke-linejoin:round;stroke-miterlimit:4;stroke-dasharray:none;stroke-opacity:0.999962;stop-color:#000000"
       d="m 127.00001,256.11667 h 16.93333 l 8.46667,14.81666 -8.46667,14.81667 h -16.93333 l -8.46667,-14.81667 z"
       id="path4714-5-6-6-7"
       sodipodi:nodetypes="ccccccc" />
    <path
       style="display:inline;fill:#008080;stroke:#0044aa;stroke-width:16.9333;stroke-linecap:butt;stroke-linejoin:round;stroke-miterlimit:4;stroke-dasharray:none;stroke-opacity:0.999962;stop-color:#000000"
       d="M 82.550006,270.93333 H 120.65"
       id="path10284-0-7-0"
       sodipodi:nodetypes="cc" />
    <path
       style="display:inline;fill:#008080;stroke:#0044aa;stroke-width:16.9333;stroke-linecap:butt;stroke-linejoin:round;stroke-miterlimit:4;stroke-dasharray:none;stroke-opacity:0.999962;stop-color:#000000"
       d="M 12.7,270.93333 H 50.799996"
       id="path10284-0-2-4"
       sodipodi:nodetypes="cc" />
    <path
       style="display:inline;fill:#008080;stroke:#0044aa;stroke-width:16.9333;stroke-linecap:butt;stroke-linejoin:round;stroke-miterlimit:4;stroke-dasharray:none;stroke-opacity:0.999962;stop-color:#000000"
       d="m 251.88334,237.06666 h 38.09999"
       id="path10284-0-6-8"
       sodipodi:nodetypes="cc" />
    <path
       style="display:inline;fill:#008080;stroke:#0044aa;stroke-width:8.46667;stroke-linecap:butt;stroke-linejoin:round;stroke-miterlimit:4;stroke-dasharray:none;stroke-opacity:0.999962;stop-color:#000000"
       d="M 160.86667,222.25 H 177.8 l 8.46667,14.81665 L 177.8,251.88332 H 160.86667 L 152.4,237.06665 Z"
       id="path4714-5-6-0-0"
       sodipodi:nodetypes="ccccccc" />
    <path
       style="display:inline;fill:#008080;stroke:#0044aa;stroke-width:8.46667;stroke-linecap:butt;stroke-linejoin:round;stroke-miterlimit:4;stroke-dasharray:none;stroke-opacity:0.999962;stop-color:#000000"
       d="m 228.60001,222.25 h 16.93333 l 8.46667,14.81665 -8.46667,14.81667 h -16.93333 l -8.46667,-14.81667 z"
       id="path4714-5-8-2-3-4"
       sodipodi:nodetypes="ccccccc" />
    <path
       style="display:inline;fill:#008080;stroke:#0044aa;stroke-width:16.9333;stroke-linecap:butt;stroke-linejoin:round;stroke-miterlimit:4;stroke-dasharray:none;stroke-opacity:0.999962;stop-color:#000000"
       d="m 184.15,237.06665 h 38.10001"
       id="path10284-3-6-2"
       sodipodi:nodetypes="cc" />
    <path
       style="display:inline;fill:#008080;stroke:#0044aa;stroke-width:16.9333;stroke-linecap:butt;stroke-linejoin:round;stroke-miterlimit:4;stroke-dasharray:none;stroke-opacity:0.999962;stop-color:#000000"
       d="m 116.41667,237.06665 h 38.1"
       id="path10284-0-4-9"
       sodipodi:nodetypes="cc" />
    <path
       style="display:inline;fill:#008080;stroke:#0044aa;stroke-width:8.46667;stroke-linecap:butt;stroke-linejoin:round;stroke-miterlimit:4;stroke-dasharray:none;stroke-opacity:0.999962;stop-color:#000000"
       d="m 194.73334,256.11667 h 16.93333 l 8.46667,14.81666 -8.46667,14.81667 h -16.93333 l -8.46667,-14.81667 z"
       id="path4714-5-6-0-5-6"
       sodipodi:nodetypes="ccccccc" />
    <path
       style="display:inline;fill:#008080;stroke:#0044aa;stroke-width:8.46667;stroke-linecap:butt;stroke-linejoin:round;stroke-miterlimit:4;stroke-dasharray:none;stroke-opacity:0.999962;stop-color:#000000"
       d="m 262.46668,256.11667 h 16.93333 l 8.46667,14.81666 -8.46667,14.81667 h -16.93333 l -8.46667,-14.81667 z"
       id="path4714-5-8-2-3-6-1"
       sodipodi:nodetypes="ccccccc" />
    <path
       style="display:inline;fill:#008080;stroke:#0044aa;stroke-width:16.9333;stroke-linecap:butt;stroke-linejoin:round;stroke-miterlimit:4;stroke-dasharray:none;stroke-opacity:0.999962;stop-color:#000000"
       d="m 218.01667,270.93333 h 38.10001"
       id="path10284-3-6-9-0"
       sodipodi:nodetypes="cc" />
    <path
       style="display:inline;fill:#008080;stroke:#0044aa;stroke-width:16.9333;stroke-linecap:butt;stroke-linejoin:round;stroke-miterlimit:4;stroke-dasharray:none;stroke-opacity:0.999962;stop-color:#000000"
       d="m 150.28334,270.93333 h 38.1"
       id="path10284-0-4-8-42"
       sodipodi:nodetypes="cc" />
  </g>
  <g
     inkscape:groupmode="layer"
     id="layer2"
     inkscape:label="Pattern" />
  <g
     inkscape:groupmode="layer"
     id="layer4"
     inkscape:label="Stains"
     style="opacity:0.14874187" />
</svg>
